HMPSOC/ReCOP-Rishi/simulation/qsim/TopLevel.msim.vcd
$comment
	File created using the following command:
		vcd file TopLevel.msim.vcd -direction
$end
$date
	Sun May 19 23:46:22 2024
$end
$version
	ModelSim Version 10.5b
$end
$timescale
	1ps
$end

$scope module pc_testbench_vhd_vec_tst $end
$var wire 1 ! clk $end
$var wire 1 " counterIN [15] $end
$var wire 1 # counterIN [14] $end
$var wire 1 $ counterIN [13] $end
$var wire 1 % counterIN [12] $end
$var wire 1 & counterIN [11] $end
$var wire 1 ' counterIN [10] $end
$var wire 1 ( counterIN [9] $end
$var wire 1 ) counterIN [8] $end
$var wire 1 * counterIN [7] $end
$var wire 1 + counterIN [6] $end
$var wire 1 , counterIN [5] $end
$var wire 1 - counterIN [4] $end
$var wire 1 . counterIN [3] $end
$var wire 1 / counterIN [2] $end
$var wire 1 0 counterIN [1] $end
$var wire 1 1 counterIN [0] $end
$var wire 1 2 counterOUT [15] $end
$var wire 1 3 counterOUT [14] $end
$var wire 1 4 counterOUT [13] $end
$var wire 1 5 counterOUT [12] $end
$var wire 1 6 counterOUT [11] $end
$var wire 1 7 counterOUT [10] $end
$var wire 1 8 counterOUT [9] $end
$var wire 1 9 counterOUT [8] $end
$var wire 1 : counterOUT [7] $end
$var wire 1 ; counterOUT [6] $end
$var wire 1 < counterOUT [5] $end
$var wire 1 = counterOUT [4] $end
$var wire 1 > counterOUT [3] $end
$var wire 1 ? counterOUT [2] $end
$var wire 1 @ counterOUT [1] $end
$var wire 1 A counterOUT [0] $end
$var wire 1 B loadPC $end
$var wire 1 C reset $end

$scope module i1 $end
$var wire 1 D gnd $end
$var wire 1 E vcc $end
$var wire 1 F unknown $end
$var wire 1 G devoe $end
$var wire 1 H devclrn $end
$var wire 1 I devpor $end
$var wire 1 J ww_devoe $end
$var wire 1 K ww_devclrn $end
$var wire 1 L ww_devpor $end
$var wire 1 M ww_counterOUT [15] $end
$var wire 1 N ww_counterOUT [14] $end
$var wire 1 O ww_counterOUT [13] $end
$var wire 1 P ww_counterOUT [12] $end
$var wire 1 Q ww_counterOUT [11] $end
$var wire 1 R ww_counterOUT [10] $end
$var wire 1 S ww_counterOUT [9] $end
$var wire 1 T ww_counterOUT [8] $end
$var wire 1 U ww_counterOUT [7] $end
$var wire 1 V ww_counterOUT [6] $end
$var wire 1 W ww_counterOUT [5] $end
$var wire 1 X ww_counterOUT [4] $end
$var wire 1 Y ww_counterOUT [3] $end
$var wire 1 Z ww_counterOUT [2] $end
$var wire 1 [ ww_counterOUT [1] $end
$var wire 1 \ ww_counterOUT [0] $end
$var wire 1 ] ww_clk $end
$var wire 1 ^ ww_reset $end
$var wire 1 _ ww_loadPC $end
$var wire 1 ` ww_counterIN [15] $end
$var wire 1 a ww_counterIN [14] $end
$var wire 1 b ww_counterIN [13] $end
$var wire 1 c ww_counterIN [12] $end
$var wire 1 d ww_counterIN [11] $end
$var wire 1 e ww_counterIN [10] $end
$var wire 1 f ww_counterIN [9] $end
$var wire 1 g ww_counterIN [8] $end
$var wire 1 h ww_counterIN [7] $end
$var wire 1 i ww_counterIN [6] $end
$var wire 1 j ww_counterIN [5] $end
$var wire 1 k ww_counterIN [4] $end
$var wire 1 l ww_counterIN [3] $end
$var wire 1 m ww_counterIN [2] $end
$var wire 1 n ww_counterIN [1] $end
$var wire 1 o ww_counterIN [0] $end
$var wire 1 p \counterOUT[15]~output_o\ $end
$var wire 1 q \counterOUT[14]~output_o\ $end
$var wire 1 r \counterOUT[13]~output_o\ $end
$var wire 1 s \counterOUT[12]~output_o\ $end
$var wire 1 t \counterOUT[11]~output_o\ $end
$var wire 1 u \counterOUT[10]~output_o\ $end
$var wire 1 v \counterOUT[9]~output_o\ $end
$var wire 1 w \counterOUT[8]~output_o\ $end
$var wire 1 x \counterOUT[7]~output_o\ $end
$var wire 1 y \counterOUT[6]~output_o\ $end
$var wire 1 z \counterOUT[5]~output_o\ $end
$var wire 1 { \counterOUT[4]~output_o\ $end
$var wire 1 | \counterOUT[3]~output_o\ $end
$var wire 1 } \counterOUT[2]~output_o\ $end
$var wire 1 ~ \counterOUT[1]~output_o\ $end
$var wire 1 !! \counterOUT[0]~output_o\ $end
$var wire 1 "! \clk~input_o\ $end
$var wire 1 #! \counterIN[15]~input_o\ $end
$var wire 1 $! \reset~input_o\ $end
$var wire 1 %! \loadPC~input_o\ $end
$var wire 1 &! \counterIN[14]~input_o\ $end
$var wire 1 '! \counterIN[13]~input_o\ $end
$var wire 1 (! \counterIN[12]~input_o\ $end
$var wire 1 )! \counterIN[11]~input_o\ $end
$var wire 1 *! \counterIN[10]~input_o\ $end
$var wire 1 +! \counterIN[9]~input_o\ $end
$var wire 1 ,! \counterIN[8]~input_o\ $end
$var wire 1 -! \counterIN[7]~input_o\ $end
$var wire 1 .! \counterIN[6]~input_o\ $end
$var wire 1 /! \counterIN[5]~input_o\ $end
$var wire 1 0! \counterIN[4]~input_o\ $end
$var wire 1 1! \counterIN[3]~input_o\ $end
$var wire 1 2! \counterIN[2]~input_o\ $end
$var wire 1 3! \counterIN[1]~input_o\ $end
$var wire 1 4! \counterIN[0]~input_o\ $end
$var wire 1 5! \inst2|programCounterOut\ [15] $end
$var wire 1 6! \inst2|programCounterOut\ [14] $end
$var wire 1 7! \inst2|programCounterOut\ [13] $end
$var wire 1 8! \inst2|programCounterOut\ [12] $end
$var wire 1 9! \inst2|programCounterOut\ [11] $end
$var wire 1 :! \inst2|programCounterOut\ [10] $end
$var wire 1 ;! \inst2|programCounterOut\ [9] $end
$var wire 1 <! \inst2|programCounterOut\ [8] $end
$var wire 1 =! \inst2|programCounterOut\ [7] $end
$var wire 1 >! \inst2|programCounterOut\ [6] $end
$var wire 1 ?! \inst2|programCounterOut\ [5] $end
$var wire 1 @! \inst2|programCounterOut\ [4] $end
$var wire 1 A! \inst2|programCounterOut\ [3] $end
$var wire 1 B! \inst2|programCounterOut\ [2] $end
$var wire 1 C! \inst2|programCounterOut\ [1] $end
$var wire 1 D! \inst2|programCounterOut\ [0] $end
$var wire 1 E! \ALT_INV_reset~input_o\ $end
$upscope $end
$upscope $end
$enddefinitions $end
#0
$dumpvars
0!
0B
0C
0D
1E
xF
1G
1H
1I
1J
1K
1L
0]
0^
0_
0p
0q
0r
0s
0t
0u
0v
0w
0x
0y
0z
0{
0|
0}
0~
0!!
0"!
0#!
0$!
0%!
0&!
0'!
0(!
0)!
0*!
0+!
0,!
0-!
0.!
0/!
00!
01!
02!
03!
04!
1E!
0"
0#
0$
0%
0&
0'
0(
0)
0*
0+
0,
0-
0.
0/
00
01
0M
0N
0O
0P
0Q
0R
0S
0T
0U
0V
0W
0X
0Y
0Z
0[
0\
0`
0a
0b
0c
0d
0e
0f
0g
0h
0i
0j
0k
0l
0m
0n
0o
05!
06!
07!
08!
09!
0:!
0;!
0<!
0=!
0>!
0?!
0@!
0A!
0B!
0C!
0D!
02
03
04
05
06
07
08
09
0:
0;
0<
0=
0>
0?
0@
0A
$end
#20000
1!
11
1]
1o
14!
1"!
#40000
0!
01
1B
10
0]
0o
1n
1_
1%!
13!
04!
0"!
#60000
1!
11
1]
1o
14!
1"!
1C!
1~
1[
1@
#80000
0!
01
00
1/
0]
0o
0n
1m
12!
03!
04!
0"!
#100000
1!
11
1]
1o
14!
1"!
1B!
0C!
0~
1}
0[
1Z
0@
1?
#120000
0!
01
10
0]
0o
1n
13!
04!
0"!
#140000
1!
11
1]
1o
14!
1"!
1C!
1~
1[
1@
#160000
0!
01
00
0/
1.
0]
0o
0n
0m
1l
11!
02!
03!
04!
0"!
#180000
1!
11
1]
1o
14!
1"!
1A!
0B!
0C!
0~
0}
1|
0[
0Z
1Y
0@
0?
1>
#200000
0!
01
10
0]
0o
1n
13!
04!
0"!
#220000
1!
11
1]
1o
14!
1"!
1C!
1~
1[
1@
#240000
0!
01
00
1/
0]
0o
0n
1m
12!
03!
04!
0"!
#260000
1!
11
1]
1o
14!
1"!
1B!
0C!
0~
1}
0[
1Z
0@
1?
#280000
0!
01
10
0]
0o
1n
13!
04!
0"!
#300000
1!
11
1]
1o
14!
1"!
1C!
1~
1[
1@
#320000
0!
01
00
0/
0.
1-
0]
0o
0n
0m
0l
1k
10!
01!
02!
03!
04!
0"!
#340000
1!
11
1]
1o
14!
1"!
1@!
0A!
0B!
0C!
0~
0}
0|
1{
0[
0Z
0Y
1X
0@
0?
0>
1=
#360000
0!
01
10
0]
0o
1n
13!
04!
0"!
#380000
1!
11
1]
1o
14!
1"!
1C!
1~
1[
1@
#400000
0!
01
00
1/
0]
0o
0n
1m
12!
03!
04!
0"!
#420000
1!
11
1C
1]
1o
1^
1$!
14!
1"!
0E!
1B!
0C!
0@!
0B!
0~
1}
0}
0{
0[
1Z
0Z
0X
0@
1?
0?
0=
#440000
0!
01
10
0B
0]
0o
1n
0_
0%!
13!
04!
0"!
#460000
1!
11
1]
1o
14!
1"!
#480000
0!
01
00
1B
0/
1.
0]
0o
0n
0m
1l
1_
1%!
11!
02!
03!
04!
0"!
#499000
0C
0^
0$!
1E!
#500000
1!
11
1]
1o
14!
1"!
1@!
1A!
1|
1{
1Y
1X
1>
1=
#520000
0!
01
10
0]
0o
1n
13!
04!
0"!
#540000
1!
11
1]
1o
14!
1"!
1C!
1~
1[
1@
#560000
0!
01
00
1/
0]
0o
0n
1m
12!
03!
04!
0"!
#580000
1!
11
1]
1o
14!
1"!
1B!
0C!
0~
1}
0[
1Z
0@
1?
#600000
0!
01
10
0]
0o
1n
13!
04!
0"!
#620000
1!
11
1]
1o
14!
1"!
1C!
1~
1[
1@
#640000
0!
01
00
0/
0.
0-
1,
0]
0o
0n
0m
0l
0k
1j
1/!
00!
01!
02!
03!
04!
0"!
#660000
1!
11
1]
1o
14!
1"!
1?!
0@!
0A!
0B!
0C!
0~
0}
0|
0{
1z
0[
0Z
0Y
0X
1W
0@
0?
0>
0=
1<
#680000
0!
01
10
0]
0o
1n
13!
04!
0"!
